// Jest Snapshot v1, https://goo.gl/fbAQLP

exports[`microformats parser 1`] = `
Object {
  "author": undefined,
  "content": undefined,
  "inReplyTo": undefined,
  "published": Date { NaN },
}
`;

exports[`microformats parser 2`] = `
Object {
  "author": undefined,
  "content": undefined,
  "inReplyTo": undefined,
  "published": Date { NaN },
}
`;
