// Jest Snapshot v1, https://goo.gl/fbAQLP

exports[`deletable post tpl 1`] = `
"
		<p><a href=\\"&#x2F;feed\\">Subscribe via RSS</a></p>
		<h2>Posts</h2>
		<ul>
			<li>
				<a style=\\"font-weight:bold; font-size: 20px;\\" href=\\"&#x2F;post1\\">post 1</a>
				<i><time datetime=\\"2020-12-29T00:00:00.000Z\\">29&#x2F;12&#x2F;2020, 00:00:00</time></i>
				<form style=\\"display:inline\\" method=\\"POST\\" action=\\"&#x2F;post1!!\\"><button>Delete</button></form>
			</li>
		</ul>"
`;

exports[`home handler 1`] = `
"
		<p><a href=\\"&#x2F;feed\\">Subscribe via RSS</a></p>
		<h2>Posts</h2>
		<ul>
			<li>
				<a style=\\"font-weight:bold; font-size: 20px;\\" href=\\"&#x2F;post1\\">post 1</a>
				<i><time datetime=\\"2020-12-29T00:00:00.000Z\\">29&#x2F;12&#x2F;2020, 00:00:00</time></i>
				
			</li>
		</ul>"
`;
