// Jest Snapshot v1, https://goo.gl/fbAQLP

exports[`create route 1`] = `
Template {
  "_literals": Array [
    "<form method=\\"POST\\">
	<label>Title<input name=\\"title\\" value=\\"",
    "\\"></label><br>
	<script type=\\"module\\">
	import 'https://unpkg.com/element-internals-polyfill@0.1.30/dist/index.js';
	import HtmlArea from 'https://paulkiddle.gitlab.io/html-area/html-area.js';
	HtmlArea.register();
	</script>
	",
    "
	<label>Content<br>
	<html-area style=\\"display: block;\\"><textarea name=\\"content\\" rows=\\"25\\" cols=\\"100\\">",
    "</textarea></html-area>
	</label><br>
	<button>Submit</button>
</form>",
  ],
  "_variables": Array [
    "",
    Template {
      "_literals": Array [
        "
	<button type=\\"button\\" onclick=\\"document.execCommand('bold');\\">Bold</button>
	<button type=\\"button\\" onclick=\\"document.execCommand('italic');\\">Italic</button>
	<button type=\\"button\\" onclick=\\"const link=prompt('href', '');link && document.execCommand('createLink',null,link)\\">Link</button>
	",
        "
	<button type=\\"button\\" onclick=\\"wrapInline('code');document.querySelector('html-area').dispatchEvent(new InputEvent('input'));\\">Code</button>
	",
      ],
      "_variables": Array [
        Template {
          "_literals": Array [
            "<script>

function rangeInvert(range, relativeTo){
	const before = new Range();
	before.setStartBefore(relativeTo.firstChild);
	before.setEnd(range.startContainer, range.startOffset);

	const after = new Range();
	after.setStart(range.endContainer, range.endOffset);
	after.setEndAfter(relativeTo.lastChild);

	return [before, after];
}

function unformat(range, tag){
	const container = range.commonAncestorContainer;
	const parentEl = container.closest ? container : container.parentElement;
	const tagNode = parentEl.closest(tag);
	const [before, after] = rangeInvert(range, tagNode);
	const inserted = [before, after].map(range => {
		const frag = range.extractContents();
		const el = document.createElement(tag);
		el.appendChild(frag);
		range.insertNode(el);
		return el;
	});
	tagNode.replaceWith(...tagNode.childNodes);
	range.setStartAfter(inserted[0]);
	range.setEndBefore(inserted[1]);
	return range;
}

	function wrapInline(tag){
		const sel = window.getSelection();

		for(let i=0; i<sel.rangeCount; i++){
			const range = sel.getRangeAt(i);
			const frag = range.extractContents();
			for(const node of frag.querySelectorAll(tag)) {
				node.replaceWith(...node.childNodes)
			}
			const el = document.createElement(tag);
			el.appendChild(frag);
			range.insertNode(el);
			range.selectNodeContents(el);
		}
	}
	</script>",
          ],
          "_variables": Array [],
        },
      ],
    },
    "",
  ],
}
`;

exports[`delete route 1`] = `"/"`;
