// Jest Snapshot v1, https://goo.gl/fbAQLP

exports[`ui 404 route 1`] = `
Array [
  Array [
    "<!doctype HTML><html>
<head>
<meta name=\\"viewport\\" content=\\"width=device-width, initial-scale=1\\">
<meta charset=\\"UTF-8\\">
<title>undefined</title>
<link rel=\\"alternate\\" type=\\"application/rss+xml\\" title=\\"Blog Feed\\" href=\\"http:&#x2F;&#x2F;example.com&#x2F;feed\\" />
</head><body style=\\"--theme-colour: rebeccapurple\\">
	
<style>
html, body {
	margin: 0;
	padding: 0;
	height: 100%;
}
* {
	box-sizing: border-box;
}
body {
	display: flex;
	flex-direction: column;
	font-family: Arial, sans-serif;
}

main.content {
	flex-grow: 1;
	margin-top: 30px;
}
main h1, main h2 {
	color: var(--theme-colour);
}
body > header {
	background: var(--theme-colour);
	color: white;
	min-height: 170px;
	display: flex;
}
body > header a:link,
body > header a:visited {
	color: white;
}

.content {
	width: 100%;
	max-width: 1200px;
	margin: 0 auto;
	padding: 10px;
}

.siteInfo{
	display: flex;
	justify-content: space-between;
}

.login{
	display: inline-block;
	background: #262626;
	padding: 3px 10.5px 4px;
	border-radius: 8px;
	border-top-left-radius: 0;
	border-top-right-radius: 0;
	margin-top: -10px;
	font-size: 11px;
	letter-spacing: 0.5px;
}
body > footer {
	background: #F1F1F1;
	color: var(--theme-color);
}
body>header h1 {
	font-weight: normal;
	margin: 32px 0 0 0;
}
body>main h1 {
	font-weight: normal;
	letter-spacing: -0.05em;
	/*margin-top: 0;*/
}
body>header .content {
	display: flex;
	flex-direction: column;
	justify-content: space-between;
}
body>header nav {
	margin-bottom: -10px;
}
body>header nav a {
	display: inline-block;
	background: rgba(0,0,0,0.3);
	border-radius: 8px;
	border-bottom-left-radius: 0;
	border-bottom-right-radius: 0;
	padding: 5px 10.5px 5px;
	letter-spacing: 0.5px;
}
</style>

	<header>
		<div class=\\"content\\">
			<div class=\\"siteInfo\\">
		  		<h1>undefined</h1>
				<div><a href=\\"/auth\\">Login</a></div>
			</div>
			<nav>
				<a href=\\"&#x2F;\\">Home</a>
			</nav>
		</div>
	</header>
	<main class=\\"content\\">
		<div>Page not found</div>
	</main>
	</body>",
  ],
]
`;

exports[`ui error catch 1`] = `
Array [
  Array [
    "Error: Error",
  ],
]
`;
