// Jest Snapshot v1, https://goo.gl/fbAQLP

exports[`Gets post 1`] = `
Post {
  "date": 1970-01-01T00:00:00.000Z,
  "title": "title",
}
`;

exports[`Has name & id 1`] = `
AuthenticatedUser {
  "authenticated": true,
  "avatar": "avatar",
  "id": "id",
  "name": "name",
}
`;
